abaqus-6.13
abaqus-6.14
adina-8.6.5
ads-2011.10
ads-2013.06
altera-13.0
amesim-12
amesim-13.2
ampl-12.2
ampl-2013
ansa-14.2.1
ansa-15.1.0
ansys-15.0
ansys-designer-8.0.3
ansysem-15.0.7
applix-6.1
assura5141-4.12.020
assura615-4.12.020
calibre-2012.2_17
calibre-2013.2_18.13
chemkin-10112
comsol-3.5a
comsol-4.4
comsol-5.0
cosmoscope-2012.12
cplex-12.6
cubit-13.2
custom-explorer-2013.03
cxoffice-6.1
dytran-2012
eagle-6.4.0
edi-10.1
edi-11.12.000
edi-13.10.000
ets-11.12.000
ets-13.10.000
finesim-2011.11-SP2
finesim-2012.12-sp1-2
FLEXlm-11.10
FLEXlm-11.7
freepdk45-1.4
gaussian-09revc
gridgen-15.0
gurobi-5.6
hfss-15.0.3
hl3dem-15.3
hsim-2012.06
hsim-2013.03
hspice-2011.09-SP2
hspice-2012.06-sp2
hspice-2013.03
hyperworks-12.0
ic-5.141_usr6.151
ic-6.1.5
ic-6.1.5.500.16
icflow-2008.2o
idl-8.2
imsl-7.0
incisiv-11.10.061
incisiv-12.20.012
intel-12.1
intel-13.0.1
intel-14.0
intel-15.0
isight-5.7
lsdyna-971.510
magellan-2012.09
maple-17
maple-18
marc-2012
marc-2014
mathematica-10.0
mathematica-9.0
matlab-2010b
matlab-2013a
matlab-2013b
matlab-2014a
matlab-2014b
matstudio-6.1
matstudio-7.0
maxwell-16.0.3
maya-2011
mdi-2012
mdi-2013
medici-2013.03
mentor-ams-11.2
mentor-ams-12.1
mentor-ams-12.2a
milkyway-2012.06
milkyway-2013.03-sp1
mmsim-11.10.487
mmsim-12.10.457
modelsim-10.2b
nag-23
nagf95-5.1
nagf95-5.2
nagf95-5.3.2
nagmat-23
nanosim-2012.06
nanosim-2013.03
nastran-2012
nastran-2013
ncx-2012.06
ncx-2013.03
nx-7.5
patran-2012
patran-2013
pgi-14.4
pgi-6.1
pointwise-17.0
primetime-2012.06
primetime-2012.12-sp3-1
pve-11.12.106
pve-12.10.488
pyxis-10.1
pyxis-10.2_1
q3d-12.0.3
sentaurus-2012.06
sentaurus-2013.03-sp1
spb-16.5
splus-7.0
splus-8.2
spss-20
spss-22
starccm-8.02
starccm-9.02
starccm-9.04
starrc-2012.06
starrc-2012.12-sp3
synopsys-icc-2012.06
synopsys-icc-2013.03-sp1
synopsys-icc-2013.03-SP5-1
synopsys-icwbev-plus-2012.06-SP2
synopsys-synth-2012.06
synopsys-synth-2013.03-sp1
tecplot360-2013
tecplotfocus-2013
tessent-2013.3
tetramax-2013.03-sp1
tsuprem4-2013.03
vcs-2011.03
vcs-2012.09
vcs-2012.09-sp1
vcs-2013.06-sp1
vera-2009.12-15
xa-2012.06
xa-2013.03-1
audacity-2.0.5
avl-3.31
blender-2.71
boost-1.50
cloog-0.18.0
cmake-2.8.8
cuda-3.2
cuda-4.2
cuda-5.5
cuda-6.5
deal_II-8.1.0
gc-7.4.0
gcc-4.7.0
gcc-4.8.2
gdb-7.5.1
git-1.8.4
glfw-3.0.4
gqlplus-1.15
guile-1.8.8
guile-2.0.11
h5utils-1.12.1
harminv-1.3.1
hdf5-1.6.2
icoutils-0.30.0
isl-0.11.1
meep-1.2
meep-1.2.1
mercurial-2.9
minicom-2.7
mongodb-2.6.4
mpb-1.4.2
mpb-1.5
mpc-0.9
mpfr-3.1.0
nusmv-2.5.4
openfoam-2.1.1
openfoam-2.3.x
openmpi-1.6.1
protobuf-2.5.0
python-2.7.3
python-2.7.6
python-3.2.3
qt-4.8.2
qt-5.2
qt-creator-2.5.0
qt-creator-2.5.1
R-2.13.1
sage-5.13
scala-2.9.2
scons-2.3.0
spin-6.2.5
texlive-2011
texlive-2013
tulip-0.4a
visit-2.5.2
vmd-1.9
yices-1.0.39
