{
  "took" : 517,
  "timed_out" : false,
  "_shards" : {
    "total" : 126,
    "successful" : 126,
    "failed" : 0
  },
  "hits" : {
    "total" : 35616381,
    "max_score" : 0.0,
    "hits" : [ ]
  },
  "facets" : {
    "1" : {
      "_type" : "date_histogram",
      "entries" : [ {
        "time" : 1414843200000,
        "count" : 118816
      }, {
        "time" : 1414886400000,
        "count" : 28233
      }, {
        "time" : 1414929600000,
        "count" : 69259
      }, {
        "time" : 1414972800000,
        "count" : 126863
      }, {
        "time" : 1415016000000,
        "count" : 395907
      }, {
        "time" : 1415059200000,
        "count" : 134156
      }, {
        "time" : 1415102400000,
        "count" : 351101
      }, {
        "time" : 1415145600000,
        "count" : 134654
      }, {
        "time" : 1415188800000,
        "count" : 373413
      }, {
        "time" : 1415232000000,
        "count" : 132617
      }, {
        "time" : 1415275200000,
        "count" : 361970
      }, {
        "time" : 1415318400000,
        "count" : 107310
      }, {
        "time" : 1415361600000,
        "count" : 266000
      }, {
        "time" : 1415404800000,
        "count" : 42323
      }, {
        "time" : 1415448000000,
        "count" : 140065
      }, {
        "time" : 1415491200000,
        "count" : 67533
      }, {
        "time" : 1415534400000,
        "count" : 178724
      }, {
        "time" : 1415577600000,
        "count" : 134737
      }, {
        "time" : 1415620800000,
        "count" : 360834
      }, {
        "time" : 1415664000000,
        "count" : 144454
      }, {
        "time" : 1415707200000,
        "count" : 340478
      }, {
        "time" : 1415750400000,
        "count" : 136832
      }, {
        "time" : 1415793600000,
        "count" : 351948
      }, {
        "time" : 1415836800000,
        "count" : 133065
      }, {
        "time" : 1415880000000,
        "count" : 354393
      }, {
        "time" : 1415923200000,
        "count" : 115719
      }, {
        "time" : 1415966400000,
        "count" : 275365
      }, {
        "time" : 1416009600000,
        "count" : 53314
      }, {
        "time" : 1416052800000,
        "count" : 143376
      }, {
        "time" : 1416096000000,
        "count" : 86501
      }, {
        "time" : 1416139200000,
        "count" : 203323
      }, {
        "time" : 1416182400000,
        "count" : 126299
      }, {
        "time" : 1416225600000,
        "count" : 363076
      }, {
        "time" : 1416268800000,
        "count" : 148551
      }, {
        "time" : 1416312000000,
        "count" : 365817
      }, {
        "time" : 1416355200000,
        "count" : 129604
      }, {
        "time" : 1416398400000,
        "count" : 396573
      }, {
        "time" : 1416441600000,
        "count" : 146084
      }, {
        "time" : 1416484800000,
        "count" : 361514
      }, {
        "time" : 1416528000000,
        "count" : 146715
      }, {
        "time" : 1416571200000,
        "count" : 296628
      }, {
        "time" : 1416614400000,
        "count" : 53619
      }, {
        "time" : 1416657600000,
        "count" : 147317
      }, {
        "time" : 1416700800000,
        "count" : 78285
      }, {
        "time" : 1416744000000,
        "count" : 266284
      }, {
        "time" : 1416787200000,
        "count" : 162537
      }, {
        "time" : 1416830400000,
        "count" : 438481
      }, {
        "time" : 1416873600000,
        "count" : 172761
      }, {
        "time" : 1416916800000,
        "count" : 391626
      }, {
        "time" : 1416960000000,
        "count" : 101993
      }, {
        "time" : 1417003200000,
        "count" : 171969
      }, {
        "time" : 1417046400000,
        "count" : 13682
      }, {
        "time" : 1417089600000,
        "count" : 20432
      }, {
        "time" : 1417132800000,
        "count" : 9466
      }, {
        "time" : 1417176000000,
        "count" : 33703
      }, {
        "time" : 1417219200000,
        "count" : 104663
      }, {
        "time" : 1417262400000,
        "count" : 88303
      }, {
        "time" : 1417305600000,
        "count" : 59134
      }, {
        "time" : 1417348800000,
        "count" : 155295
      }, {
        "time" : 1417392000000,
        "count" : 152361
      }, {
        "time" : 1417435200000,
        "count" : 411445
      }, {
        "time" : 1417478400000,
        "count" : 178275
      }, {
        "time" : 1417521600000,
        "count" : 377155
      }, {
        "time" : 1417564800000,
        "count" : 165045
      }, {
        "time" : 1417608000000,
        "count" : 401536
      }, {
        "time" : 1417651200000,
        "count" : 205090
      }, {
        "time" : 1417694400000,
        "count" : 356745
      }, {
        "time" : 1417737600000,
        "count" : 205647
      }, {
        "time" : 1417780800000,
        "count" : 319424
      }, {
        "time" : 1417824000000,
        "count" : 81764
      }, {
        "time" : 1417867200000,
        "count" : 215483
      }, {
        "time" : 1417910400000,
        "count" : 130674
      }, {
        "time" : 1417953600000,
        "count" : 264524
      }, {
        "time" : 1417996800000,
        "count" : 221189
      }, {
        "time" : 1418040000000,
        "count" : 247178
      }, {
        "time" : 1418126400000,
        "count" : 364844
      }, {
        "time" : 1418169600000,
        "count" : 208553
      }, {
        "time" : 1418212800000,
        "count" : 413518
      }, {
        "time" : 1418256000000,
        "count" : 178913
      }, {
        "time" : 1418299200000,
        "count" : 316472
      }, {
        "time" : 1418342400000,
        "count" : 137220
      } ]
    }
  }
}
