Feb 14 00:04:35 flux-login2 chnyyang: matlab 2012a flux
Feb 14 01:45:55 flux-login2 xcli: hadoop 1.1.2
Feb 14 01:45:55 flux-login2 xcli: pig 0.11.1
Feb 14 01:59:09 flux-login2 xcli: hadoop 1.1.2
Feb 14 01:59:09 flux-login2 xcli: pig 0.11.1
Feb 14 02:12:23 flux-login2 xcli: hadoop 1.1.2
Feb 14 02:12:23 flux-login2 xcli: pig 0.11.1
Feb 14 07:48:43 flux-login2 lbaruah: idl 8.2 flux
Feb 14 07:48:43 flux-login2 lbaruah: gcc 4.8.0
Feb 14 07:48:43 flux-login2 lbaruah: boost 1.50.0-intel
Feb 14 07:48:43 flux-login2 lbaruah: cmake 2.8.8
Feb 14 07:48:43 flux-login2 lbaruah: python 2.7.3
Feb 14 08:10:19 flux-login2 drmoreno: gsl 1.15
Feb 14 08:22:36 flux-login2 root: git 1.8.1
Feb 14 08:27:55 flux-login2 markmont: flux-utils 1
Feb 14 08:27:58 flux-login2 markmont: flux-utils 1
Feb 14 08:27:59 flux-login2 markmont: flux-utils 1
Feb 14 08:28:01 flux-login2 markmont: flux-utils 1
Feb 14 08:29:50 flux-login2 markmont: flux-utils 1
Feb 14 08:33:03 flux-login2 drmoreno: gsl 1.15
