{
  "title": "SoftwareUsage-tknox",
  "services": {
    "query": {
      "list": {
        "0": {
          "query": "_type:winevent AND NOT (cmd:'Windows\\\\Sys') AND NOT (accountname:tknox)",
          "alias": "",
          "color": "#7EB26D",
          "id": 0,
          "pin": false,
          "type": "lucene",
          "enable": true
        }
      },
      "ids": [
        0
      ]
    },
    "filter": {
      "list": {
        "0": {
          "type": "time",
          "field": "@timestamp",
          "from": "now-24h",
          "to": "now",
          "mandate": "must",
          "active": true,
          "alias": "",
          "id": 0
        },
        "1": {
          "type": "querystring",
          "query": "host=CAEN-CAMASSIA",
          "mandate": "must",
          "active": false,
          "alias": "",
          "id": 1
        },
        "2": {
          "type": "querystring",
          "query": "elapsed.time>0",
          "mandate": "must",
          "active": false,
          "alias": "",
          "id": 2
        },
        "3": {
          "type": "querystring",
          "query": "EventType=4688",
          "mandate": "must",
          "active": false,
          "alias": "",
          "id": 3
        },
        "4": {
          "type": "querystring",
          "query": "EventType=4689",
          "mandate": "must",
          "active": true,
          "alias": "",
          "id": 4
        },
        "5": {
          "type": "querystring",
          "query": "exe=chrome.exe",
          "mandate": "mustNot",
          "active": true,
          "alias": "",
          "id": 5
        },
        "6": {
          "type": "querystring",
          "query": "exe=net.exe",
          "mandate": "mustNot",
          "active": false,
          "alias": "",
          "id": 6
        }
      },
      "ids": [
        0,
        1,
        2,
        3,
        4,
        5,
        6
      ]
    }
  },
  "rows": [
    {
      "title": "Graph",
      "height": "250px",
      "editable": true,
      "collapse": false,
      "collapsable": true,
      "panels": [
        {
          "error": false,
          "span": 3,
          "editable": true,
          "type": "terms",
          "loadingEditor": false,
          "field": "comm",
          "exclude": [
            ""
          ],
          "missing": false,
          "other": false,
          "size": 10,
          "order": "count",
          "style": {
            "font-size": "10pt"
          },
          "donut": true,
          "tilt": false,
          "labels": true,
          "arrangement": "horizontal",
          "chart": "pie",
          "counter_pos": "none",
          "spyable": true,
          "queries": {
            "mode": "all",
            "ids": [
              0
            ]
          },
          "tmode": "terms",
          "tstat": "total",
          "valuefield": "",
          "title": "Top10 Titles"
        },
        {
          "error": false,
          "span": 4,
          "editable": true,
          "type": "terms",
          "loadingEditor": false,
          "field": "exe",
          "exclude": [],
          "missing": false,
          "other": false,
          "size": 10,
          "order": "count",
          "style": {
            "font-size": "10pt"
          },
          "donut": false,
          "tilt": false,
          "labels": true,
          "arrangement": "horizontal",
          "chart": "bar",
          "counter_pos": "above",
          "spyable": true,
          "queries": {
            "mode": "all",
            "ids": [
              0
            ]
          },
          "tmode": "terms",
          "tstat": "total",
          "valuefield": "",
          "title": "Software Sources"
        }
      ],
      "notice": false
    },
    {
      "title": "",
      "height": "150px",
      "editable": true,
      "collapse": false,
      "collapsable": true,
      "panels": [
        {
          "span": 12,
          "editable": true,
          "type": "histogram",
          "loadingEditor": false,
          "mode": "count",
          "time_field": "@timestamp",
          "value_field": "_type",
          "x-axis": true,
          "y-axis": true,
          "scale": 1,
          "y_format": "none",
          "grid": {
            "max": null,
            "min": 0
          },
          "queries": {
            "mode": "all",
            "ids": [
              0
            ]
          },
          "annotate": {
            "enable": false,
            "query": "*",
            "size": 20,
            "field": "_type",
            "sort": [
              "_score",
              "desc"
            ]
          },
          "auto_int": true,
          "resolution": 100,
          "interval": "10m",
          "intervals": [
            "auto",
            "1s",
            "1m",
            "5m",
            "10m",
            "30m",
            "1h",
            "3h",
            "12h",
            "1d",
            "1w",
            "1y"
          ],
          "lines": false,
          "fill": 0,
          "linewidth": 2,
          "points": false,
          "pointradius": 5,
          "bars": true,
          "stack": true,
          "spyable": true,
          "zoomlinks": true,
          "options": true,
          "legend": true,
          "show_query": true,
          "interactive": true,
          "legend_counts": true,
          "timezone": "browser",
          "percentage": false,
          "zerofill": true,
          "derivative": false,
          "tooltip": {
            "value_type": "individual",
            "query_as_alias": true
          },
          "title": "Titles Over Time"
        }
      ],
      "notice": false
    },
    {
      "title": "Events",
      "height": "650px",
      "editable": true,
      "collapse": false,
      "collapsable": true,
      "panels": [
        {
          "error": false,
          "span": 12,
          "editable": true,
          "group": [
            "default"
          ],
          "type": "table",
          "size": 50,
          "pages": 20,
          "offset": 0,
          "sort": [
            "@timestamp",
            "desc"
          ],
          "style": {
            "font-size": "9pt"
          },
          "overflow": "min-height",
          "fields": [
            "host",
            "exe",
            "@timestamp",
            "comm",
            "username",
            "pid",
            "ppid",
            "elapsed.time"
          ],
          "highlight": [],
          "sortable": true,
          "header": true,
          "paging": true,
          "spyable": true,
          "queries": {
            "mode": "all",
            "ids": [
              0
            ]
          },
          "field_list": false,
          "status": "Stable",
          "trimFactor": 200,
          "normTimes": true,
          "title": "Job logs in chronological order",
          "all_fields": false,
          "localTime": false,
          "timeField": "@timestamp"
        },
        {
          "error": false,
          "span": 5,
          "editable": true,
          "type": "terms",
          "loadingEditor": false,
          "field": "comm",
          "exclude": [],
          "missing": false,
          "other": false,
          "size": 50,
          "order": "count",
          "style": {
            "font-size": "10pt"
          },
          "donut": false,
          "tilt": false,
          "labels": true,
          "arrangement": "horizontal",
          "chart": "table",
          "counter_pos": "above",
          "spyable": true,
          "queries": {
            "mode": "all",
            "ids": [
              0
            ]
          },
          "tmode": "terms",
          "tstat": "total_count",
          "valuefield": ""
        },
        {
          "error": false,
          "span": 4,
          "editable": true,
          "type": "terms",
          "loadingEditor": false,
          "field": "username",
          "exclude": [],
          "missing": true,
          "other": true,
          "size": 25,
          "order": "count",
          "style": {
            "font-size": "10pt"
          },
          "donut": false,
          "tilt": false,
          "labels": true,
          "arrangement": "horizontal",
          "chart": "table",
          "counter_pos": "above",
          "spyable": true,
          "queries": {
            "mode": "all",
            "ids": [
              0
            ]
          },
          "tmode": "terms",
          "tstat": "total",
          "valuefield": "",
          "title": "Top 25 Users"
        }
      ],
      "notice": false
    }
  ],
  "editable": true,
  "index": {
    "interval": "day",
    "pattern": "[caen-winevent-]YYYY.MM.DDDD",
    "default": "logstash-joblogs*",
    "warm_fields": false
  },
  "style": "dark",
  "failover": false,
  "panel_hints": true,
  "loader": {
    "save_gist": false,
    "save_elasticsearch": true,
    "save_local": true,
    "save_default": true,
    "save_temp": true,
    "save_temp_ttl_enable": true,
    "save_temp_ttl": "30d",
    "load_gist": true,
    "load_elasticsearch": true,
    "load_elasticsearch_size": 20,
    "load_local": true,
    "hide": false
  },
  "pulldowns": [
    {
      "type": "query",
      "collapse": false,
      "notice": false,
      "query": "*",
      "pinned": true,
      "history": [
        "_type:winevent AND NOT (cmd:'Windows\\\\Sys') AND NOT (accountname:tknox)",
        "_type:winevent AND NOT (cmd:'Windows\\\\Sys')",
        "_type:winevent AND NOT (cmd:'Windows\\\\System')",
        "_type:winevent AND NOT (cmd:'Windows\\\\System32')",
        "_type:winevent AND (cmd:'Windows\\\\System32')",
        "_type:winevent AND (cmd:'Windows\\\\\\\\System32')",
        "_type:winevent AND (cmd:'Windows\\\\System32\\\\')",
        "_type:winevent AND (cmd:'Windows\\\\System')",
        "_type:winevent AND (cmd:'Windows\\\\Sys')",
        "_type:winevent AND (cmd:'Windows\\Sys')"
      ],
      "remember": 10,
      "enable": true
    },
    {
      "type": "filtering",
      "collapse": false,
      "notice": true,
      "enable": true
    }
  ],
  "nav": [
    {
      "type": "timepicker",
      "collapse": false,
      "notice": false,
      "status": "Stable",
      "time_options": [
        "5m",
        "15m",
        "1h",
        "6h",
        "12h",
        "24h",
        "2d",
        "7d",
        "30d"
      ],
      "refresh_intervals": [
        "5s",
        "10s",
        "30s",
        "1m",
        "5m",
        "15m",
        "30m",
        "1h",
        "2h",
        "1d"
      ],
      "timefield": "@timestamp",
      "enable": true,
      "now": true,
      "filter_id": 0
    }
  ],
  "refresh": false
}